{
    "niv": {
        "branch": "master",
        "description": "Easy dependency management for Nix projects",
        "homepage": "https://github.com/nmattia/niv",
        "owner": "nmattia",
        "repo": "niv",
        "rev": "82e5cd1ad3c387863f0545d7591512e76ab0fc41",
        "sha256": "090l219mzc0gi33i3psgph6s2pwsc8qy4lyrqjdj4qzkvmaj65a7",
        "type": "tarball",
        "url": "https://github.com/nmattia/niv/archive/82e5cd1ad3c387863f0545d7591512e76ab0fc41.tar.gz",
        "url_template": "https://github.com/<owner>/<repo>/archive/<rev>.tar.gz"
    },
    "nixpkgs": {
        "branch": "nixpkgs-unstable",
        "description": "Nix Packages collection",
        "homepage": "",
        "owner": "NixOS",
        "repo": "nixpkgs",
        "rev": "f4dfed73ee886b115a99e5b85fdfbeb683290d83",
        "sha256": "1scpisl06f9mc31khj0m2q21yvx108bi7l9s0n9aq8f1w4fjprg6",
        "type": "tarball",
        "url": "https://github.com/NixOS/nixpkgs/archive/f4dfed73ee886b115a99e5b85fdfbeb683290d83.tar.gz",
        "url_template": "https://github.com/<owner>/<repo>/archive/<rev>.tar.gz"
    }
}
